%YAML 1.1
%TAG !u! tag:unity3d.com,2011:
--- !u!29 &1
OcclusionCullingSettings:
  m_ObjectHideFlags: 0
  serializedVersion: 2
  m_OcclusionBakeSettings:
    smallestOccluder: 5
    smallestHole: 0.25
    backfaceThreshold: 100
  m_SceneGUID: 00000000000000000000000000000000
  m_OcclusionCullingData: {fileID: 0}
--- !u!104 &2
RenderSettings:
  m_ObjectHideFlags: 0
  serializedVersion: 9
  m_Fog: 0
  m_FogColor: {r: 0.5, g: 0.5, b: 0.5, a: 1}
  m_FogMode: 3
  m_FogDensity: 0.01
  m_LinearFogStart: 0
  m_LinearFogEnd: 300
  m_AmbientSkyColor: {r: 0.212, g: 0.227, b: 0.259, a: 1}
  m_AmbientEquatorColor: {r: 0.114, g: 0.125, b: 0.133, a: 1}
  m_AmbientGroundColor: {r: 0.047, g: 0.043, b: 0.035, a: 1}
  m_AmbientIntensity: 1
  m_AmbientMode: 3
  m_SubtractiveShadowColor: {r: 0.42, g: 0.478, b: 0.627, a: 1}
  m_SkyboxMaterial: {fileID: 0}
  m_HaloStrength: 0.5
  m_FlareStrength: 1
  m_FlareFadeSpeed: 3
  m_HaloTexture: {fileID: 0}
  m_SpotCookie: {fileID: 10001, guid: 0000000000000000e000000000000000, type: 0}
  m_DefaultReflectionMode: 0
  m_DefaultReflectionResolution: 128
  m_ReflectionBounces: 1
  m_ReflectionIntensity: 1
  m_CustomReflection: {fileID: 0}
  m_Sun: {fileID: 0}
  m_IndirectSpecularColor: {r: 0, g: 0, b: 0, a: 1}
  m_UseRadianceAmbientProbe: 0
--- !u!157 &3
LightmapSettings:
  m_ObjectHideFlags: 0
  serializedVersion: 11
  m_GIWorkflowMode: 1
  m_GISettings:
    serializedVersion: 2
    m_BounceScale: 1
    m_IndirectOutputScale: 1
    m_AlbedoBoost: 1
    m_EnvironmentLightingMode: 0
    m_EnableBakedLightmaps: 0
    m_EnableRealtimeLightmaps: 0
  m_LightmapEditorSettings:
    serializedVersion: 12
    m_Resolution: 2
    m_BakeResolution: 40
    m_AtlasSize: 1024
    m_AO: 0
    m_AOMaxDistance: 1
    m_CompAOExponent: 1
    m_CompAOExponentDirect: 0
    m_ExtractAmbientOcclusion: 0
    m_Padding: 2
    m_LightmapParameters: {fileID: 0}
    m_LightmapsBakeMode: 1
    m_TextureCompression: 1
    m_FinalGather: 0
    m_FinalGatherFiltering: 1
    m_FinalGatherRayCount: 256
    m_ReflectionCompression: 2
    m_MixedBakeMode: 2
    m_BakeBackend: 1
    m_PVRSampling: 1
    m_PVRDirectSampleCount: 32
    m_PVRSampleCount: 512
    m_PVRBounces: 2
    m_PVREnvironmentSampleCount: 256
    m_PVREnvironmentReferencePointCount: 2048
    m_PVRFilteringMode: 1
    m_PVRDenoiserTypeDirect: 1
    m_PVRDenoiserTypeIndirect: 1
    m_PVRDenoiserTypeAO: 1
    m_PVRFilterTypeDirect: 0
    m_PVRFilterTypeIndirect: 0
    m_PVRFilterTypeAO: 0
    m_PVREnvironmentMIS: 1
    m_PVRCulling: 1
    m_PVRFilteringGaussRadiusDirect: 1
    m_PVRFilteringGaussRadiusIndirect: 5
    m_PVRFilteringGaussRadiusAO: 2
    m_PVRFilteringAtrousPositionSigmaDirect: 0.5
    m_PVRFilteringAtrousPositionSigmaIndirect: 2
    m_PVRFilteringAtrousPositionSigmaAO: 1
    m_ExportTrainingData: 0
    m_TrainingDataDestination: TrainingData
    m_LightProbeSampleCountMultiplier: 4
  m_LightingDataAsset: {fileID: 0}
  m_UseShadowmask: 1
--- !u!196 &4
NavMeshSettings:
  serializedVersion: 2
  m_ObjectHideFlags: 0
  m_BuildSettings:
    serializedVersion: 2
    agentTypeID: 0
    agentRadius: 0.5
    agentHeight: 2
    agentSlope: 45
    agentClimb: 0.4
    ledgeDropHeight: 0
    maxJumpAcrossDistance: 0
    minRegionArea: 2
    manualCellSize: 0
    cellSize: 0.16666667
    manualTileSize: 0
    tileSize: 256
    accuratePlacement: 0
    debug:
      m_Flags: 0
  m_NavMeshData: {fileID: 0}
--- !u!1001 &342764538
PrefabInstance:
  m_ObjectHideFlags: 0
  serializedVersion: 2
  m_Modification:
    m_TransformParent: {fileID: 0}
    m_Modifications:
    - target: {fileID: 7577324691219204456, guid: 940dc85209493564b861310a6a512d27,
        type: 3}
      propertyPath: m_LocalPosition.x
      value: -4.5
      objectReference: {fileID: 0}
    - target: {fileID: 7577324691219204456, guid: 940dc85209493564b861310a6a512d27,
        type: 3}
      propertyPath: m_LocalPosition.y
      value: 0
      objectReference: {fileID: 0}
    - target: {fileID: 7577324691219204456, guid: 940dc85209493564b861310a6a512d27,
        type: 3}
      propertyPath: m_LocalPosition.z
      value: 0
      objectReference: {fileID: 0}
    - target: {fileID: 7577324691219204456, guid: 940dc85209493564b861310a6a512d27,
        type: 3}
      propertyPath: m_LocalRotation.x
      value: 0
      objectReference: {fileID: 0}
    - target: {fileID: 7577324691219204456, guid: 940dc85209493564b861310a6a512d27,
        type: 3}
      propertyPath: m_LocalRotation.y
      value: 0
      objectReference: {fileID: 0}
    - target: {fileID: 7577324691219204456, guid: 940dc85209493564b861310a6a512d27,
        type: 3}
      propertyPath: m_LocalRotation.z
      value: 0.7071068
      objectReference: {fileID: 0}
    - target: {fileID: 7577324691219204456, guid: 940dc85209493564b861310a6a512d27,
        type: 3}
      propertyPath: m_LocalRotation.w
      value: 0.7071068
      objectReference: {fileID: 0}
    - target: {fileID: 7577324691219204456, guid: 940dc85209493564b861310a6a512d27,
        type: 3}
      propertyPath: m_RootOrder
      value: 2
      objectReference: {fileID: 0}
    - target: {fileID: 7577324691219204456, guid: 940dc85209493564b861310a6a512d27,
        type: 3}
      propertyPath: m_LocalEulerAnglesHint.x
      value: 0
      objectReference: {fileID: 0}
    - target: {fileID: 7577324691219204456, guid: 940dc85209493564b861310a6a512d27,
        type: 3}
      propertyPath: m_LocalEulerAnglesHint.y
      value: 0
      objectReference: {fileID: 0}
    - target: {fileID: 7577324691219204456, guid: 940dc85209493564b861310a6a512d27,
        type: 3}
      propertyPath: m_LocalEulerAnglesHint.z
      value: 90
      objectReference: {fileID: 0}
    - target: {fileID: 7577324691219204462, guid: 940dc85209493564b861310a6a512d27,
        type: 3}
      propertyPath: m_Name
      value: Wall
      objectReference: {fileID: 0}
    m_RemovedComponents: []
  m_SourcePrefab: {fileID: 100100000, guid: 940dc85209493564b861310a6a512d27, type: 3}
--- !u!4 &431729211 stripped
Transform:
  m_CorrespondingSourceObject: {fileID: 7577324691219204456, guid: 940dc85209493564b861310a6a512d27,
    type: 3}
  m_PrefabInstance: {fileID: 1306536909}
  m_PrefabAsset: {fileID: 0}
--- !u!1 &546357902
GameObject:
  m_ObjectHideFlags: 0
  m_CorrespondingSourceObject: {fileID: 0}
  m_PrefabInstance: {fileID: 0}
  m_PrefabAsset: {fileID: 0}
  serializedVersion: 6
  m_Component:
  - component: {fileID: 546357903}
  m_Layer: 0
  m_Name: GameObject
  m_TagString: Untagged
  m_Icon: {fileID: 0}
  m_NavMeshLayer: 0
  m_StaticEditorFlags: 0
  m_IsActive: 1
--- !u!4 &546357903
Transform:
  m_ObjectHideFlags: 0
  m_CorrespondingSourceObject: {fileID: 0}
  m_PrefabInstance: {fileID: 0}
  m_PrefabAsset: {fileID: 0}
  m_GameObject: {fileID: 546357902}
  m_LocalRotation: {x: 0, y: 0, z: 0, w: 1}
  m_LocalPosition: {x: 0, y: 0, z: 0}
  m_LocalScale: {x: 1, y: 1, z: 1}
  m_Children:
  - {fileID: 431729211}
  - {fileID: 2039909018}
  m_Father: {fileID: 0}
  m_RootOrder: 4
  m_LocalEulerAnglesHint: {x: 0, y: 0, z: 0}
--- !u!4 &619323523 stripped
Transform:
  m_CorrespondingSourceObject: {fileID: 159294282446594321, guid: 5cdc7ab41d786c74599c029bd7cc46ac,
    type: 3}
  m_PrefabInstance: {fileID: 1855334014}
  m_PrefabAsset: {fileID: 0}
--- !u!1001 &901070939
PrefabInstance:
  m_ObjectHideFlags: 0
  serializedVersion: 2
  m_Modification:
    m_TransformParent: {fileID: 0}
    m_Modifications:
    - target: {fileID: 4187372913823605534, guid: 832bb2b7faf6ff0418fd697e42baa476,
        type: 3}
      propertyPath: m_Name
      value: RicochetWall (2)
      objectReference: {fileID: 0}
    - target: {fileID: 4187372913823605528, guid: 832bb2b7faf6ff0418fd697e42baa476,
        type: 3}
      propertyPath: m_LocalPosition.x
      value: 4.5
      objectReference: {fileID: 0}
    - target: {fileID: 4187372913823605528, guid: 832bb2b7faf6ff0418fd697e42baa476,
        type: 3}
      propertyPath: m_LocalPosition.y
      value: -2
      objectReference: {fileID: 0}
    - target: {fileID: 4187372913823605528, guid: 832bb2b7faf6ff0418fd697e42baa476,
        type: 3}
      propertyPath: m_LocalPosition.z
      value: 0
      objectReference: {fileID: 0}
    - target: {fileID: 4187372913823605528, guid: 832bb2b7faf6ff0418fd697e42baa476,
        type: 3}
      propertyPath: m_LocalRotation.x
      value: 0
      objectReference: {fileID: 0}
    - target: {fileID: 4187372913823605528, guid: 832bb2b7faf6ff0418fd697e42baa476,
        type: 3}
      propertyPath: m_LocalRotation.y
      value: 0
      objectReference: {fileID: 0}
    - target: {fileID: 4187372913823605528, guid: 832bb2b7faf6ff0418fd697e42baa476,
        type: 3}
      propertyPath: m_LocalRotation.z
      value: 0
      objectReference: {fileID: 0}
    - target: {fileID: 4187372913823605528, guid: 832bb2b7faf6ff0418fd697e42baa476,
        type: 3}
      propertyPath: m_LocalRotation.w
      value: 1
      objectReference: {fileID: 0}
    - target: {fileID: 4187372913823605528, guid: 832bb2b7faf6ff0418fd697e42baa476,
        type: 3}
      propertyPath: m_RootOrder
      value: 7
      objectReference: {fileID: 0}
    - target: {fileID: 4187372913823605528, guid: 832bb2b7faf6ff0418fd697e42baa476,
        type: 3}
      propertyPath: m_LocalEulerAnglesHint.x
      value: 0
      objectReference: {fileID: 0}
    - target: {fileID: 4187372913823605528, guid: 832bb2b7faf6ff0418fd697e42baa476,
        type: 3}
      propertyPath: m_LocalEulerAnglesHint.y
      value: 0
      objectReference: {fileID: 0}
    - target: {fileID: 4187372913823605528, guid: 832bb2b7faf6ff0418fd697e42baa476,
        type: 3}
      propertyPath: m_LocalEulerAnglesHint.z
      value: 0
      objectReference: {fileID: 0}
    - target: {fileID: 4187372913823605528, guid: 832bb2b7faf6ff0418fd697e42baa476,
        type: 3}
      propertyPath: m_LocalScale.x
      value: 300
      objectReference: {fileID: 0}
    m_RemovedComponents: []
  m_SourcePrefab: {fileID: 100100000, guid: 832bb2b7faf6ff0418fd697e42baa476, type: 3}
--- !u!4 &928716564 stripped
Transform:
  m_CorrespondingSourceObject: {fileID: 7577324691219204456, guid: 940dc85209493564b861310a6a512d27,
    type: 3}
  m_PrefabInstance: {fileID: 986869822}
  m_PrefabAsset: {fileID: 0}
--- !u!1 &981102708
GameObject:
  m_ObjectHideFlags: 0
  m_CorrespondingSourceObject: {fileID: 0}
  m_PrefabInstance: {fileID: 0}
  m_PrefabAsset: {fileID: 0}
  serializedVersion: 6
  m_Component:
  - component: {fileID: 981102709}
  m_Layer: 0
  m_Name: GameObject (1)
  m_TagString: Untagged
  m_Icon: {fileID: 0}
  m_NavMeshLayer: 0
  m_StaticEditorFlags: 0
  m_IsActive: 1
--- !u!4 &981102709
Transform:
  m_ObjectHideFlags: 0
  m_CorrespondingSourceObject: {fileID: 0}
  m_PrefabInstance: {fileID: 0}
  m_PrefabAsset: {fileID: 0}
  m_GameObject: {fileID: 981102708}
  m_LocalRotation: {x: 0, y: 0, z: 1, w: 0}
  m_LocalPosition: {x: 0, y: 0, z: 0}
  m_LocalScale: {x: 1, y: 1, z: 1}
  m_Children:
  - {fileID: 928716564}
  - {fileID: 1351481589}
  m_Father: {fileID: 0}
  m_RootOrder: 5
  m_LocalEulerAnglesHint: {x: 0, y: 0, z: 180}
--- !u!1001 &986869822
PrefabInstance:
  m_ObjectHideFlags: 0
  serializedVersion: 2
  m_Modification:
    m_TransformParent: {fileID: 981102709}
    m_Modifications:
    - target: {fileID: 7577324691219204456, guid: 940dc85209493564b861310a6a512d27,
        type: 3}
      propertyPath: m_LocalPosition.x
      value: 0
      objectReference: {fileID: 0}
    - target: {fileID: 7577324691219204456, guid: 940dc85209493564b861310a6a512d27,
        type: 3}
      propertyPath: m_LocalPosition.y
      value: 0
      objectReference: {fileID: 0}
    - target: {fileID: 7577324691219204456, guid: 940dc85209493564b861310a6a512d27,
        type: 3}
      propertyPath: m_LocalPosition.z
      value: 0
      objectReference: {fileID: 0}
    - target: {fileID: 7577324691219204456, guid: 940dc85209493564b861310a6a512d27,
        type: 3}
      propertyPath: m_LocalRotation.x
      value: -0
      objectReference: {fileID: 0}
    - target: {fileID: 7577324691219204456, guid: 940dc85209493564b861310a6a512d27,
        type: 3}
      propertyPath: m_LocalRotation.y
      value: -0
      objectReference: {fileID: 0}
    - target: {fileID: 7577324691219204456, guid: 940dc85209493564b861310a6a512d27,
        type: 3}
      propertyPath: m_LocalRotation.z
      value: -0
      objectReference: {fileID: 0}
    - target: {fileID: 7577324691219204456, guid: 940dc85209493564b861310a6a512d27,
        type: 3}
      propertyPath: m_LocalRotation.w
      value: 1
      objectReference: {fileID: 0}
    - target: {fileID: 7577324691219204456, guid: 940dc85209493564b861310a6a512d27,
        type: 3}
      propertyPath: m_RootOrder
      value: 0
      objectReference: {fileID: 0}
    - target: {fileID: 7577324691219204456, guid: 940dc85209493564b861310a6a512d27,
        type: 3}
      propertyPath: m_LocalEulerAnglesHint.x
      value: 0
      objectReference: {fileID: 0}
    - target: {fileID: 7577324691219204456, guid: 940dc85209493564b861310a6a512d27,
        type: 3}
      propertyPath: m_LocalEulerAnglesHint.y
      value: 0
      objectReference: {fileID: 0}
    - target: {fileID: 7577324691219204456, guid: 940dc85209493564b861310a6a512d27,
        type: 3}
      propertyPath: m_LocalEulerAnglesHint.z
      value: 0
      objectReference: {fileID: 0}
    - target: {fileID: 7577324691219204456, guid: 940dc85209493564b861310a6a512d27,
        type: 3}
      propertyPath: m_LocalScale.x
      value: 300
      objectReference: {fileID: 0}
    - target: {fileID: 7577324692885155333, guid: 940dc85209493564b861310a6a512d27,
        type: 3}
      propertyPath: m_LocalPosition.x
      value: 0
      objectReference: {fileID: 0}
    - target: {fileID: 7577324692885155333, guid: 940dc85209493564b861310a6a512d27,
        type: 3}
      propertyPath: m_LocalPosition.y
      value: 0.17
      objectReference: {fileID: 0}
    - target: {fileID: 7577324691219204462, guid: 940dc85209493564b861310a6a512d27,
        type: 3}
      propertyPath: m_Name
      value: Wall
      objectReference: {fileID: 0}
    - target: {fileID: 7577324691219204457, guid: 940dc85209493564b861310a6a512d27,
        type: 3}
      propertyPath: speed
      value: 45
      objectReference: {fileID: 0}
    - target: {fileID: 7577324691219204457, guid: 940dc85209493564b861310a6a512d27,
        type: 3}
      propertyPath: angle
      value: 360
      objectReference: {fileID: 0}
    - target: {fileID: 7577324691219204457, guid: 940dc85209493564b861310a6a512d27,
        type: 3}
      propertyPath: isSpinning
      value: 1
      objectReference: {fileID: 0}
    m_RemovedComponents: []
  m_SourcePrefab: {fileID: 100100000, guid: 940dc85209493564b861310a6a512d27, type: 3}
--- !u!4 &1033434845 stripped
Transform:
  m_CorrespondingSourceObject: {fileID: 159294282446594321, guid: 5cdc7ab41d786c74599c029bd7cc46ac,
    type: 3}
  m_PrefabInstance: {fileID: 1194433654}
  m_PrefabAsset: {fileID: 0}
--- !u!1001 &1194433654
PrefabInstance:
  m_ObjectHideFlags: 0
  serializedVersion: 2
  m_Modification:
    m_TransformParent: {fileID: 546357903}
    m_Modifications:
    - target: {fileID: 8211143398452291326, guid: 5cdc7ab41d786c74599c029bd7cc46ac,
        type: 3}
      propertyPath: m_Name
      value: NormalPortalPair
      objectReference: {fileID: 0}
    - target: {fileID: 8707562474806186944, guid: 5cdc7ab41d786c74599c029bd7cc46ac,
        type: 3}
      propertyPath: m_LocalPosition.x
      value: 0
      objectReference: {fileID: 0}
    - target: {fileID: 8707562474806186944, guid: 5cdc7ab41d786c74599c029bd7cc46ac,
        type: 3}
      propertyPath: m_LocalPosition.y
      value: 0
      objectReference: {fileID: 0}
    - target: {fileID: 8707562474806186944, guid: 5cdc7ab41d786c74599c029bd7cc46ac,
        type: 3}
      propertyPath: m_LocalPosition.z
      value: 0
      objectReference: {fileID: 0}
    - target: {fileID: 8707562474806186944, guid: 5cdc7ab41d786c74599c029bd7cc46ac,
        type: 3}
      propertyPath: m_LocalRotation.x
      value: -0
      objectReference: {fileID: 0}
    - target: {fileID: 8707562474806186944, guid: 5cdc7ab41d786c74599c029bd7cc46ac,
        type: 3}
      propertyPath: m_LocalRotation.y
      value: -0
      objectReference: {fileID: 0}
    - target: {fileID: 8707562474806186944, guid: 5cdc7ab41d786c74599c029bd7cc46ac,
        type: 3}
      propertyPath: m_LocalRotation.z
      value: -0
      objectReference: {fileID: 0}
    - target: {fileID: 8707562474806186944, guid: 5cdc7ab41d786c74599c029bd7cc46ac,
        type: 3}
      propertyPath: m_LocalRotation.w
      value: 1
      objectReference: {fileID: 0}
    - target: {fileID: 8707562474806186944, guid: 5cdc7ab41d786c74599c029bd7cc46ac,
        type: 3}
      propertyPath: m_RootOrder
      value: 1
      objectReference: {fileID: 0}
    - target: {fileID: 8707562474806186944, guid: 5cdc7ab41d786c74599c029bd7cc46ac,
        type: 3}
      propertyPath: m_LocalEulerAnglesHint.x
      value: 0
      objectReference: {fileID: 0}
    - target: {fileID: 8707562474806186944, guid: 5cdc7ab41d786c74599c029bd7cc46ac,
        type: 3}
      propertyPath: m_LocalEulerAnglesHint.y
      value: 0
      objectReference: {fileID: 0}
    - target: {fileID: 8707562474806186944, guid: 5cdc7ab41d786c74599c029bd7cc46ac,
        type: 3}
      propertyPath: m_LocalEulerAnglesHint.z
      value: 0
      objectReference: {fileID: 0}
    - target: {fileID: 159294281694512764, guid: 5cdc7ab41d786c74599c029bd7cc46ac,
        type: 3}
      propertyPath: m_LocalPosition.x
      value: 0
      objectReference: {fileID: 0}
    - target: {fileID: 159294281694512764, guid: 5cdc7ab41d786c74599c029bd7cc46ac,
        type: 3}
      propertyPath: m_LocalRotation.z
      value: 1
      objectReference: {fileID: 0}
    - target: {fileID: 159294281694512764, guid: 5cdc7ab41d786c74599c029bd7cc46ac,
        type: 3}
      propertyPath: m_LocalRotation.w
      value: 0
      objectReference: {fileID: 0}
    - target: {fileID: 159294281694512764, guid: 5cdc7ab41d786c74599c029bd7cc46ac,
        type: 3}
      propertyPath: m_LocalEulerAnglesHint.z
      value: 180
      objectReference: {fileID: 0}
    - target: {fileID: 2048546028804570861, guid: 5cdc7ab41d786c74599c029bd7cc46ac,
        type: 3}
      propertyPath: m_LocalPosition.x
      value: -7
      objectReference: {fileID: 0}
    - target: {fileID: 2048546028804570861, guid: 5cdc7ab41d786c74599c029bd7cc46ac,
        type: 3}
      propertyPath: m_LocalPosition.y
      value: 2
      objectReference: {fileID: 0}
    - target: {fileID: 2048546028804570861, guid: 5cdc7ab41d786c74599c029bd7cc46ac,
        type: 3}
      propertyPath: m_LocalRotation.z
      value: 1
      objectReference: {fileID: 0}
    - target: {fileID: 2048546028804570861, guid: 5cdc7ab41d786c74599c029bd7cc46ac,
        type: 3}
      propertyPath: m_LocalRotation.w
      value: 0
      objectReference: {fileID: 0}
    - target: {fileID: 2048546028804570861, guid: 5cdc7ab41d786c74599c029bd7cc46ac,
        type: 3}
      propertyPath: m_LocalEulerAnglesHint.z
      value: 180
      objectReference: {fileID: 0}
    - target: {fileID: 159294282446594321, guid: 5cdc7ab41d786c74599c029bd7cc46ac,
        type: 3}
      propertyPath: m_LocalPosition.y
      value: -0.2
      objectReference: {fileID: 0}
    - target: {fileID: 159294282446594321, guid: 5cdc7ab41d786c74599c029bd7cc46ac,
        type: 3}
      propertyPath: m_LocalRotation.z
      value: 1
      objectReference: {fileID: 0}
    - target: {fileID: 159294282446594321, guid: 5cdc7ab41d786c74599c029bd7cc46ac,
        type: 3}
      propertyPath: m_LocalRotation.w
      value: 0
      objectReference: {fileID: 0}
    - target: {fileID: 159294282446594321, guid: 5cdc7ab41d786c74599c029bd7cc46ac,
        type: 3}
      propertyPath: m_LocalEulerAnglesHint.z
      value: 180
      objectReference: {fileID: 0}
    - target: {fileID: 7076104891323388588, guid: 5cdc7ab41d786c74599c029bd7cc46ac,
        type: 3}
      propertyPath: isSpinning
      value: 1
      objectReference: {fileID: 0}
    - target: {fileID: 7076104891323388588, guid: 5cdc7ab41d786c74599c029bd7cc46ac,
        type: 3}
      propertyPath: speed
      value: 45
      objectReference: {fileID: 0}
    - target: {fileID: 7076104891323388588, guid: 5cdc7ab41d786c74599c029bd7cc46ac,
        type: 3}
      propertyPath: angle
      value: 360
      objectReference: {fileID: 0}
    - target: {fileID: 8965355571217033789, guid: 5cdc7ab41d786c74599c029bd7cc46ac,
        type: 3}
      propertyPath: partnerPortal
      value: 
      objectReference: {fileID: 1033434845}
    m_RemovedComponents: []
  m_SourcePrefab: {fileID: 100100000, guid: 5cdc7ab41d786c74599c029bd7cc46ac, type: 3}
--- !u!1001 &1284737761
PrefabInstance:
  m_ObjectHideFlags: 0
  serializedVersion: 2
  m_Modification:
    m_TransformParent: {fileID: 0}
    m_Modifications:
    - target: {fileID: 4187372913823605534, guid: 832bb2b7faf6ff0418fd697e42baa476,
        type: 3}
      propertyPath: m_Name
      value: RicochetWall
      objectReference: {fileID: 0}
    - target: {fileID: 4187372913823605528, guid: 832bb2b7faf6ff0418fd697e42baa476,
        type: 3}
      propertyPath: m_LocalPosition.x
      value: 0
      objectReference: {fileID: 0}
    - target: {fileID: 4187372913823605528, guid: 832bb2b7faf6ff0418fd697e42baa476,
        type: 3}
      propertyPath: m_LocalPosition.y
      value: 0
      objectReference: {fileID: 0}
    - target: {fileID: 4187372913823605528, guid: 832bb2b7faf6ff0418fd697e42baa476,
        type: 3}
      propertyPath: m_LocalPosition.z
      value: 0
      objectReference: {fileID: 0}
    - target: {fileID: 4187372913823605528, guid: 832bb2b7faf6ff0418fd697e42baa476,
        type: 3}
      propertyPath: m_LocalRotation.x
      value: 0
      objectReference: {fileID: 0}
    - target: {fileID: 4187372913823605528, guid: 832bb2b7faf6ff0418fd697e42baa476,
        type: 3}
      propertyPath: m_LocalRotation.y
      value: 0
      objectReference: {fileID: 0}
    - target: {fileID: 4187372913823605528, guid: 832bb2b7faf6ff0418fd697e42baa476,
        type: 3}
      propertyPath: m_LocalRotation.z
      value: 0.7071068
      objectReference: {fileID: 0}
    - target: {fileID: 4187372913823605528, guid: 832bb2b7faf6ff0418fd697e42baa476,
        type: 3}
      propertyPath: m_LocalRotation.w
      value: 0.7071068
      objectReference: {fileID: 0}
    - target: {fileID: 4187372913823605528, guid: 832bb2b7faf6ff0418fd697e42baa476,
        type: 3}
      propertyPath: m_RootOrder
      value: 3
      objectReference: {fileID: 0}
    - target: {fileID: 4187372913823605528, guid: 832bb2b7faf6ff0418fd697e42baa476,
        type: 3}
      propertyPath: m_LocalEulerAnglesHint.x
      value: 0
      objectReference: {fileID: 0}
    - target: {fileID: 4187372913823605528, guid: 832bb2b7faf6ff0418fd697e42baa476,
        type: 3}
      propertyPath: m_LocalEulerAnglesHint.y
      value: 0
      objectReference: {fileID: 0}
    - target: {fileID: 4187372913823605528, guid: 832bb2b7faf6ff0418fd697e42baa476,
        type: 3}
      propertyPath: m_LocalEulerAnglesHint.z
      value: 90
      objectReference: {fileID: 0}
    m_RemovedComponents: []
  m_SourcePrefab: {fileID: 100100000, guid: 832bb2b7faf6ff0418fd697e42baa476, type: 3}
--- !u!1001 &1306536909
PrefabInstance:
  m_ObjectHideFlags: 0
  serializedVersion: 2
  m_Modification:
    m_TransformParent: {fileID: 546357903}
    m_Modifications:
    - target: {fileID: 7577324691219204456, guid: 940dc85209493564b861310a6a512d27,
        type: 3}
      propertyPath: m_LocalPosition.x
      value: 0
      objectReference: {fileID: 0}
    - target: {fileID: 7577324691219204456, guid: 940dc85209493564b861310a6a512d27,
        type: 3}
      propertyPath: m_LocalPosition.y
      value: 0
      objectReference: {fileID: 0}
    - target: {fileID: 7577324691219204456, guid: 940dc85209493564b861310a6a512d27,
        type: 3}
      propertyPath: m_LocalPosition.z
      value: 0
      objectReference: {fileID: 0}
    - target: {fileID: 7577324691219204456, guid: 940dc85209493564b861310a6a512d27,
        type: 3}
      propertyPath: m_LocalRotation.x
      value: -0
      objectReference: {fileID: 0}
    - target: {fileID: 7577324691219204456, guid: 940dc85209493564b861310a6a512d27,
        type: 3}
      propertyPath: m_LocalRotation.y
      value: -0
      objectReference: {fileID: 0}
    - target: {fileID: 7577324691219204456, guid: 940dc85209493564b861310a6a512d27,
        type: 3}
      propertyPath: m_LocalRotation.z
      value: -0
      objectReference: {fileID: 0}
    - target: {fileID: 7577324691219204456, guid: 940dc85209493564b861310a6a512d27,
        type: 3}
      propertyPath: m_LocalRotation.w
      value: 1
      objectReference: {fileID: 0}
    - target: {fileID: 7577324691219204456, guid: 940dc85209493564b861310a6a512d27,
        type: 3}
      propertyPath: m_RootOrder
      value: 0
      objectReference: {fileID: 0}
    - target: {fileID: 7577324691219204456, guid: 940dc85209493564b861310a6a512d27,
        type: 3}
      propertyPath: m_LocalEulerAnglesHint.x
      value: 0
      objectReference: {fileID: 0}
    - target: {fileID: 7577324691219204456, guid: 940dc85209493564b861310a6a512d27,
        type: 3}
      propertyPath: m_LocalEulerAnglesHint.y
      value: 0
      objectReference: {fileID: 0}
    - target: {fileID: 7577324691219204456, guid: 940dc85209493564b861310a6a512d27,
        type: 3}
      propertyPath: m_LocalEulerAnglesHint.z
      value: 0
      objectReference: {fileID: 0}
    - target: {fileID: 7577324691219204456, guid: 940dc85209493564b861310a6a512d27,
        type: 3}
      propertyPath: m_LocalScale.x
      value: 300
      objectReference: {fileID: 0}
    - target: {fileID: 7577324692885155333, guid: 940dc85209493564b861310a6a512d27,
        type: 3}
      propertyPath: m_LocalPosition.x
      value: 0
      objectReference: {fileID: 0}
    - target: {fileID: 7577324692885155333, guid: 940dc85209493564b861310a6a512d27,
        type: 3}
      propertyPath: m_LocalPosition.y
      value: 0.17
      objectReference: {fileID: 0}
    - target: {fileID: 7577324691219204462, guid: 940dc85209493564b861310a6a512d27,
        type: 3}
      propertyPath: m_Name
      value: Wall (2)
      objectReference: {fileID: 0}
    - target: {fileID: 7577324691219204457, guid: 940dc85209493564b861310a6a512d27,
        type: 3}
      propertyPath: speed
      value: 45
      objectReference: {fileID: 0}
    - target: {fileID: 7577324691219204457, guid: 940dc85209493564b861310a6a512d27,
        type: 3}
      propertyPath: angle
      value: 360
      objectReference: {fileID: 0}
    - target: {fileID: 7577324691219204457, guid: 940dc85209493564b861310a6a512d27,
        type: 3}
      propertyPath: isSpinning
      value: 1
      objectReference: {fileID: 0}
    m_RemovedComponents: []
  m_SourcePrefab: {fileID: 100100000, guid: 940dc85209493564b861310a6a512d27, type: 3}
--- !u!4 &1351481589 stripped
Transform:
  m_CorrespondingSourceObject: {fileID: 8707562474806186944, guid: 5cdc7ab41d786c74599c029bd7cc46ac,
    type: 3}
  m_PrefabInstance: {fileID: 1855334014}
  m_PrefabAsset: {fileID: 0}
--- !u!1001 &1670311073
PrefabInstance:
  m_ObjectHideFlags: 0
  serializedVersion: 2
  m_Modification:
    m_TransformParent: {fileID: 0}
    m_Modifications:
    - target: {fileID: 4187372913823605534, guid: 832bb2b7faf6ff0418fd697e42baa476,
        type: 3}
      propertyPath: m_Name
      value: RicochetWall (4)
      objectReference: {fileID: 0}
    - target: {fileID: 4187372913823605528, guid: 832bb2b7faf6ff0418fd697e42baa476,
        type: 3}
      propertyPath: m_LocalPosition.x
      value: -4.5
      objectReference: {fileID: 0}
    - target: {fileID: 4187372913823605528, guid: 832bb2b7faf6ff0418fd697e42baa476,
        type: 3}
      propertyPath: m_LocalPosition.y
      value: 2
      objectReference: {fileID: 0}
    - target: {fileID: 4187372913823605528, guid: 832bb2b7faf6ff0418fd697e42baa476,
        type: 3}
      propertyPath: m_LocalPosition.z
      value: 0
      objectReference: {fileID: 0}
    - target: {fileID: 4187372913823605528, guid: 832bb2b7faf6ff0418fd697e42baa476,
        type: 3}
      propertyPath: m_LocalRotation.x
      value: 0
      objectReference: {fileID: 0}
    - target: {fileID: 4187372913823605528, guid: 832bb2b7faf6ff0418fd697e42baa476,
        type: 3}
      propertyPath: m_LocalRotation.y
      value: 0
      objectReference: {fileID: 0}
    - target: {fileID: 4187372913823605528, guid: 832bb2b7faf6ff0418fd697e42baa476,
        type: 3}
      propertyPath: m_LocalRotation.z
      value: 0
      objectReference: {fileID: 0}
    - target: {fileID: 4187372913823605528, guid: 832bb2b7faf6ff0418fd697e42baa476,
        type: 3}
      propertyPath: m_LocalRotation.w
      value: 1
      objectReference: {fileID: 0}
    - target: {fileID: 4187372913823605528, guid: 832bb2b7faf6ff0418fd697e42baa476,
        type: 3}
      propertyPath: m_RootOrder
      value: 9
      objectReference: {fileID: 0}
    - target: {fileID: 4187372913823605528, guid: 832bb2b7faf6ff0418fd697e42baa476,
        type: 3}
      propertyPath: m_LocalEulerAnglesHint.x
      value: 0
      objectReference: {fileID: 0}
    - target: {fileID: 4187372913823605528, guid: 832bb2b7faf6ff0418fd697e42baa476,
        type: 3}
      propertyPath: m_LocalEulerAnglesHint.y
      value: 0
      objectReference: {fileID: 0}
    - target: {fileID: 4187372913823605528, guid: 832bb2b7faf6ff0418fd697e42baa476,
        type: 3}
      propertyPath: m_LocalEulerAnglesHint.z
      value: 0
      objectReference: {fileID: 0}
    - target: {fileID: 4187372913823605528, guid: 832bb2b7faf6ff0418fd697e42baa476,
        type: 3}
      propertyPath: m_LocalScale.x
      value: 300
      objectReference: {fileID: 0}
    m_RemovedComponents: []
  m_SourcePrefab: {fileID: 100100000, guid: 832bb2b7faf6ff0418fd697e42baa476, type: 3}
--- !u!1001 &1855334014
PrefabInstance:
  m_ObjectHideFlags: 0
  serializedVersion: 2
  m_Modification:
    m_TransformParent: {fileID: 981102709}
    m_Modifications:
    - target: {fileID: 8211143398452291326, guid: 5cdc7ab41d786c74599c029bd7cc46ac,
        type: 3}
      propertyPath: m_Name
      value: NormalPortalPair
      objectReference: {fileID: 0}
    - target: {fileID: 8707562474806186944, guid: 5cdc7ab41d786c74599c029bd7cc46ac,
        type: 3}
      propertyPath: m_LocalPosition.x
      value: 0
      objectReference: {fileID: 0}
    - target: {fileID: 8707562474806186944, guid: 5cdc7ab41d786c74599c029bd7cc46ac,
        type: 3}
      propertyPath: m_LocalPosition.y
      value: 0
      objectReference: {fileID: 0}
    - target: {fileID: 8707562474806186944, guid: 5cdc7ab41d786c74599c029bd7cc46ac,
        type: 3}
      propertyPath: m_LocalPosition.z
      value: 0
      objectReference: {fileID: 0}
    - target: {fileID: 8707562474806186944, guid: 5cdc7ab41d786c74599c029bd7cc46ac,
        type: 3}
      propertyPath: m_LocalRotation.x
      value: -0
      objectReference: {fileID: 0}
    - target: {fileID: 8707562474806186944, guid: 5cdc7ab41d786c74599c029bd7cc46ac,
        type: 3}
      propertyPath: m_LocalRotation.y
      value: -0
      objectReference: {fileID: 0}
    - target: {fileID: 8707562474806186944, guid: 5cdc7ab41d786c74599c029bd7cc46ac,
        type: 3}
      propertyPath: m_LocalRotation.z
      value: -0
      objectReference: {fileID: 0}
    - target: {fileID: 8707562474806186944, guid: 5cdc7ab41d786c74599c029bd7cc46ac,
        type: 3}
      propertyPath: m_LocalRotation.w
      value: 1
      objectReference: {fileID: 0}
    - target: {fileID: 8707562474806186944, guid: 5cdc7ab41d786c74599c029bd7cc46ac,
        type: 3}
      propertyPath: m_RootOrder
      value: 1
      objectReference: {fileID: 0}
    - target: {fileID: 8707562474806186944, guid: 5cdc7ab41d786c74599c029bd7cc46ac,
        type: 3}
      propertyPath: m_LocalEulerAnglesHint.x
      value: 0
      objectReference: {fileID: 0}
    - target: {fileID: 8707562474806186944, guid: 5cdc7ab41d786c74599c029bd7cc46ac,
        type: 3}
      propertyPath: m_LocalEulerAnglesHint.y
      value: 0
      objectReference: {fileID: 0}
    - target: {fileID: 8707562474806186944, guid: 5cdc7ab41d786c74599c029bd7cc46ac,
        type: 3}
      propertyPath: m_LocalEulerAnglesHint.z
      value: 0
      objectReference: {fileID: 0}
    - target: {fileID: 159294281694512764, guid: 5cdc7ab41d786c74599c029bd7cc46ac,
        type: 3}
      propertyPath: m_LocalPosition.x
      value: 0
      objectReference: {fileID: 0}
    - target: {fileID: 2048546028804570861, guid: 5cdc7ab41d786c74599c029bd7cc46ac,
        type: 3}
      propertyPath: m_LocalPosition.x
      value: -7
      objectReference: {fileID: 0}
    - target: {fileID: 2048546028804570861, guid: 5cdc7ab41d786c74599c029bd7cc46ac,
        type: 3}
      propertyPath: m_LocalPosition.y
      value: 2
      objectReference: {fileID: 0}
    - target: {fileID: 2048546028804570861, guid: 5cdc7ab41d786c74599c029bd7cc46ac,
        type: 3}
      propertyPath: m_LocalRotation.z
      value: 1
      objectReference: {fileID: 0}
    - target: {fileID: 2048546028804570861, guid: 5cdc7ab41d786c74599c029bd7cc46ac,
        type: 3}
      propertyPath: m_LocalRotation.w
      value: 0
      objectReference: {fileID: 0}
    - target: {fileID: 2048546028804570861, guid: 5cdc7ab41d786c74599c029bd7cc46ac,
        type: 3}
      propertyPath: m_LocalEulerAnglesHint.z
      value: 180
      objectReference: {fileID: 0}
    - target: {fileID: 159294282446594321, guid: 5cdc7ab41d786c74599c029bd7cc46ac,
        type: 3}
      propertyPath: m_LocalPosition.y
      value: 0.2
      objectReference: {fileID: 0}
    - target: {fileID: 159294282446594321, guid: 5cdc7ab41d786c74599c029bd7cc46ac,
        type: 3}
      propertyPath: m_LocalRotation.z
      value: 0
      objectReference: {fileID: 0}
    - target: {fileID: 159294282446594321, guid: 5cdc7ab41d786c74599c029bd7cc46ac,
        type: 3}
      propertyPath: m_LocalRotation.w
      value: 1
      objectReference: {fileID: 0}
    - target: {fileID: 159294282446594321, guid: 5cdc7ab41d786c74599c029bd7cc46ac,
        type: 3}
      propertyPath: m_LocalEulerAnglesHint.z
      value: 0
      objectReference: {fileID: 0}
    - target: {fileID: 7076104891323388588, guid: 5cdc7ab41d786c74599c029bd7cc46ac,
        type: 3}
      propertyPath: isSpinning
      value: 1
      objectReference: {fileID: 0}
    - target: {fileID: 7076104891323388588, guid: 5cdc7ab41d786c74599c029bd7cc46ac,
        type: 3}
      propertyPath: speed
      value: 45
      objectReference: {fileID: 0}
    - target: {fileID: 7076104891323388588, guid: 5cdc7ab41d786c74599c029bd7cc46ac,
        type: 3}
      propertyPath: angle
      value: 360
      objectReference: {fileID: 0}
    - target: {fileID: 8965355571217033789, guid: 5cdc7ab41d786c74599c029bd7cc46ac,
        type: 3}
      propertyPath: partnerPortal
      value: 
      objectReference: {fileID: 619323523}
    m_RemovedComponents: []
  m_SourcePrefab: {fileID: 100100000, guid: 5cdc7ab41d786c74599c029bd7cc46ac, type: 3}
--- !u!1001 &1913470265
PrefabInstance:
  m_ObjectHideFlags: 0
  serializedVersion: 2
  m_Modification:
    m_TransformParent: {fileID: 0}
    m_Modifications:
    - target: {fileID: 4187372913823605534, guid: 832bb2b7faf6ff0418fd697e42baa476,
        type: 3}
      propertyPath: m_Name
      value: RicochetWall (1)
      objectReference: {fileID: 0}
    - target: {fileID: 4187372913823605528, guid: 832bb2b7faf6ff0418fd697e42baa476,
        type: 3}
      propertyPath: m_LocalPosition.x
      value: -4.5
      objectReference: {fileID: 0}
    - target: {fileID: 4187372913823605528, guid: 832bb2b7faf6ff0418fd697e42baa476,
        type: 3}
      propertyPath: m_LocalPosition.y
      value: -2
      objectReference: {fileID: 0}
    - target: {fileID: 4187372913823605528, guid: 832bb2b7faf6ff0418fd697e42baa476,
        type: 3}
      propertyPath: m_LocalPosition.z
      value: 0
      objectReference: {fileID: 0}
    - target: {fileID: 4187372913823605528, guid: 832bb2b7faf6ff0418fd697e42baa476,
        type: 3}
      propertyPath: m_LocalRotation.x
      value: 0
      objectReference: {fileID: 0}
    - target: {fileID: 4187372913823605528, guid: 832bb2b7faf6ff0418fd697e42baa476,
        type: 3}
      propertyPath: m_LocalRotation.y
      value: 0
      objectReference: {fileID: 0}
    - target: {fileID: 4187372913823605528, guid: 832bb2b7faf6ff0418fd697e42baa476,
        type: 3}
      propertyPath: m_LocalRotation.z
      value: 0
      objectReference: {fileID: 0}
    - target: {fileID: 4187372913823605528, guid: 832bb2b7faf6ff0418fd697e42baa476,
        type: 3}
      propertyPath: m_LocalRotation.w
      value: 1
      objectReference: {fileID: 0}
    - target: {fileID: 4187372913823605528, guid: 832bb2b7faf6ff0418fd697e42baa476,
        type: 3}
      propertyPath: m_RootOrder
      value: 1
      objectReference: {fileID: 0}
    - target: {fileID: 4187372913823605528, guid: 832bb2b7faf6ff0418fd697e42baa476,
        type: 3}
      propertyPath: m_LocalEulerAnglesHint.x
      value: 0
      objectReference: {fileID: 0}
    - target: {fileID: 4187372913823605528, guid: 832bb2b7faf6ff0418fd697e42baa476,
        type: 3}
      propertyPath: m_LocalEulerAnglesHint.y
      value: 0
      objectReference: {fileID: 0}
    - target: {fileID: 4187372913823605528, guid: 832bb2b7faf6ff0418fd697e42baa476,
        type: 3}
      propertyPath: m_LocalEulerAnglesHint.z
      value: 0
      objectReference: {fileID: 0}
    - target: {fileID: 4187372913823605528, guid: 832bb2b7faf6ff0418fd697e42baa476,
        type: 3}
      propertyPath: m_LocalScale.x
      value: 300
      objectReference: {fileID: 0}
    m_RemovedComponents: []
  m_SourcePrefab: {fileID: 100100000, guid: 832bb2b7faf6ff0418fd697e42baa476, type: 3}
--- !u!1001 &2024172161
PrefabInstance:
  m_ObjectHideFlags: 0
  serializedVersion: 2
  m_Modification:
    m_TransformParent: {fileID: 0}
    m_Modifications:
    - target: {fileID: 7577324691219204456, guid: 940dc85209493564b861310a6a512d27,
        type: 3}
      propertyPath: m_LocalPosition.x
      value: 4.5
      objectReference: {fileID: 0}
    - target: {fileID: 7577324691219204456, guid: 940dc85209493564b861310a6a512d27,
        type: 3}
      propertyPath: m_LocalPosition.y
      value: 0
      objectReference: {fileID: 0}
    - target: {fileID: 7577324691219204456, guid: 940dc85209493564b861310a6a512d27,
        type: 3}
      propertyPath: m_LocalPosition.z
      value: 0
      objectReference: {fileID: 0}
    - target: {fileID: 7577324691219204456, guid: 940dc85209493564b861310a6a512d27,
        type: 3}
      propertyPath: m_LocalRotation.x
      value: 0
      objectReference: {fileID: 0}
    - target: {fileID: 7577324691219204456, guid: 940dc85209493564b861310a6a512d27,
        type: 3}
      propertyPath: m_LocalRotation.y
      value: 0
      objectReference: {fileID: 0}
    - target: {fileID: 7577324691219204456, guid: 940dc85209493564b861310a6a512d27,
        type: 3}
      propertyPath: m_LocalRotation.z
      value: 0.7071068
      objectReference: {fileID: 0}
    - target: {fileID: 7577324691219204456, guid: 940dc85209493564b861310a6a512d27,
        type: 3}
      propertyPath: m_LocalRotation.w
      value: 0.7071068
      objectReference: {fileID: 0}
    - target: {fileID: 7577324691219204456, guid: 940dc85209493564b861310a6a512d27,
        type: 3}
      propertyPath: m_RootOrder
      value: 6
      objectReference: {fileID: 0}
    - target: {fileID: 7577324691219204456, guid: 940dc85209493564b861310a6a512d27,
        type: 3}
      propertyPath: m_LocalEulerAnglesHint.x
      value: 0
      objectReference: {fileID: 0}
    - target: {fileID: 7577324691219204456, guid: 940dc85209493564b861310a6a512d27,
        type: 3}
      propertyPath: m_LocalEulerAnglesHint.y
      value: 0
      objectReference: {fileID: 0}
    - target: {fileID: 7577324691219204456, guid: 940dc85209493564b861310a6a512d27,
        type: 3}
      propertyPath: m_LocalEulerAnglesHint.z
      value: 90
      objectReference: {fileID: 0}
    - target: {fileID: 7577324691219204462, guid: 940dc85209493564b861310a6a512d27,
        type: 3}
      propertyPath: m_Name
      value: Wall (1)
      objectReference: {fileID: 0}
    m_RemovedComponents: []
  m_SourcePrefab: {fileID: 100100000, guid: 940dc85209493564b861310a6a512d27, type: 3}
--- !u!4 &2039909018 stripped
Transform:
  m_CorrespondingSourceObject: {fileID: 8707562474806186944, guid: 5cdc7ab41d786c74599c029bd7cc46ac,
    type: 3}
  m_PrefabInstance: {fileID: 1194433654}
  m_PrefabAsset: {fileID: 0}
--- !u!1001 &2061889756
PrefabInstance:
  m_ObjectHideFlags: 0
  serializedVersion: 2
  m_Modification:
    m_TransformParent: {fileID: 0}
    m_Modifications:
    - target: {fileID: 4187372913823605534, guid: 832bb2b7faf6ff0418fd697e42baa476,
        type: 3}
      propertyPath: m_Name
      value: RicochetWall (3)
      objectReference: {fileID: 0}
    - target: {fileID: 4187372913823605528, guid: 832bb2b7faf6ff0418fd697e42baa476,
        type: 3}
      propertyPath: m_LocalPosition.x
      value: 4.5
      objectReference: {fileID: 0}
    - target: {fileID: 4187372913823605528, guid: 832bb2b7faf6ff0418fd697e42baa476,
        type: 3}
      propertyPath: m_LocalPosition.y
      value: 2
      objectReference: {fileID: 0}
    - target: {fileID: 4187372913823605528, guid: 832bb2b7faf6ff0418fd697e42baa476,
        type: 3}
      propertyPath: m_LocalPosition.z
      value: 0
      objectReference: {fileID: 0}
    - target: {fileID: 4187372913823605528, guid: 832bb2b7faf6ff0418fd697e42baa476,
        type: 3}
      propertyPath: m_LocalRotation.x
      value: 0
      objectReference: {fileID: 0}
    - target: {fileID: 4187372913823605528, guid: 832bb2b7faf6ff0418fd697e42baa476,
        type: 3}
      propertyPath: m_LocalRotation.y
      value: 0
      objectReference: {fileID: 0}
    - target: {fileID: 4187372913823605528, guid: 832bb2b7faf6ff0418fd697e42baa476,
        type: 3}
      propertyPath: m_LocalRotation.z
      value: 0
      objectReference: {fileID: 0}
    - target: {fileID: 4187372913823605528, guid: 832bb2b7faf6ff0418fd697e42baa476,
        type: 3}
      propertyPath: m_LocalRotation.w
      value: 1
      objectReference: {fileID: 0}
    - target: {fileID: 4187372913823605528, guid: 832bb2b7faf6ff0418fd697e42baa476,
        type: 3}
      propertyPath: m_RootOrder
      value: 8
      objectReference: {fileID: 0}
    - target: {fileID: 4187372913823605528, guid: 832bb2b7faf6ff0418fd697e42baa476,
        type: 3}
      propertyPath: m_LocalEulerAnglesHint.x
      value: 0
      objectReference: {fileID: 0}
    - target: {fileID: 4187372913823605528, guid: 832bb2b7faf6ff0418fd697e42baa476,
        type: 3}
      propertyPath: m_LocalEulerAnglesHint.y
      value: 0
      objectReference: {fileID: 0}
    - target: {fileID: 4187372913823605528, guid: 832bb2b7faf6ff0418fd697e42baa476,
        type: 3}
      propertyPath: m_LocalEulerAnglesHint.z
      value: 0
      objectReference: {fileID: 0}
    - target: {fileID: 4187372913823605528, guid: 832bb2b7faf6ff0418fd697e42baa476,
        type: 3}
      propertyPath: m_LocalScale.x
      value: 300
      objectReference: {fileID: 0}
    m_RemovedComponents: []
  m_SourcePrefab: {fileID: 100100000, guid: 832bb2b7faf6ff0418fd697e42baa476, type: 3}
--- !u!1001 &4728922704832001167
PrefabInstance:
  m_ObjectHideFlags: 0
  serializedVersion: 2
  m_Modification:
    m_TransformParent: {fileID: 0}
    m_Modifications:
    - target: {fileID: 4728922706064438804, guid: 9e9ed9a659cff86408778a232210fbda,
        type: 3}
      propertyPath: m_Name
      value: LevelManager
      objectReference: {fileID: 0}
    - target: {fileID: 4728922706064438802, guid: 9e9ed9a659cff86408778a232210fbda,
        type: 3}
      propertyPath: m_RootOrder
      value: 0
      objectReference: {fileID: 0}
    - target: {fileID: 4728922706064438802, guid: 9e9ed9a659cff86408778a232210fbda,
        type: 3}
      propertyPath: m_LocalEulerAnglesHint.x
      value: 0
      objectReference: {fileID: 0}
    - target: {fileID: 4728922706064438802, guid: 9e9ed9a659cff86408778a232210fbda,
        type: 3}
      propertyPath: m_LocalEulerAnglesHint.y
      value: 0
      objectReference: {fileID: 0}
    - target: {fileID: 4728922706064438802, guid: 9e9ed9a659cff86408778a232210fbda,
        type: 3}
      propertyPath: m_LocalEulerAnglesHint.z
      value: 0
      objectReference: {fileID: 0}
    - target: {fileID: 4728922706064438803, guid: 9e9ed9a659cff86408778a232210fbda,
        type: 3}
      propertyPath: aiData.angle
      value: 180
      objectReference: {fileID: 0}
    - target: {fileID: 4728922706064438803, guid: 9e9ed9a659cff86408778a232210fbda,
        type: 3}
      propertyPath: aiData.time
      value: 6.35
      objectReference: {fileID: 0}
    m_RemovedComponents: []
  m_SourcePrefab: {fileID: 100100000, guid: 9e9ed9a659cff86408778a232210fbda, type: 3}
